 ## 2022/01/31 - 09:14:10 ### Inicio da chamada Imprimir
 ## 2022/01/31 - 09:14:10 ### Inicio realização impressão
 ## 2022/01/31 - 09:14:10 ### ConnectionString: data source=LAPTOP-GS6R5L20\SAP;initial catalog=SBO_Demo;persist security info=True;user id=sa;password=@up@sap13;MultipleActiveResultSets=True;
 ## 2022/01/31 - 09:15:29 ### empresa: Picking_Web.Models.Empresa
 ## 2022/01/31 - 09:15:34 ### Empresa : OEC Computadores do Brasil LTDA
 ## 2022/01/31 - 09:15:34 ### company SAPbobsCOM.CompanyClass
 ## 2022/01/31 - 09:15:34 ### Path: C:\Users\maria\Downloads\DevOps_RamoBH-picking-web-10-05-dfd6f0d365eb\Picking_Web\Relatorio/EtiquetaQrCode.rpt
