 ## 2022/01/31 - 08:44:26 ### Inicio da chamada Imprimir
 ## 2022/01/31 - 08:44:26 ### Inicio realização impressão
 ## 2022/01/31 - 08:44:26 ### ConnectionString: data source=LAPTOP-GS6R5L20\SAP;initial catalog=SBO_Teste;persist security info=True;user id=sa;password=@up@sap13;MultipleActiveResultSets=True;
 ## 2022/01/31 - 08:46:44 ### empresa: Picking_Web.Models.Empresa
 ## 2022/01/31 - 08:46:50 ### Empresa : Ramo Sistemas
 ## 2022/01/31 - 08:46:50 ### company SAPbobsCOM.CompanyClass
 ## 2022/01/31 - 08:46:55 ### Path: C:\Users\maria\Downloads\DevOps_RamoBH-picking-web-10-05-dfd6f0d365eb\Picking_Web\Relatorio/EtiquetaQrCode.rpt
