 ## 2022/01/31 - 09:07:30 ### Inicio da chamada Imprimir
 ## 2022/01/31 - 09:07:35 ### Inicio realização impressão
 ## 2022/01/31 - 09:07:36 ### ConnectionString: data source=LAPTOP-GS6R5L20\SAP;initial catalog=SBO_Teste;persist security info=True;user id=sa;password=@up@sap13;MultipleActiveResultSets=True;
 ## 2022/01/31 - 09:07:36 ### empresa: Picking_Web.Models.Empresa
 ## 2022/01/31 - 09:07:42 ### Empresa : Ramo Sistemas
 ## 2022/01/31 - 09:07:49 ### company SAPbobsCOM.CompanyClass
 ## 2022/01/31 - 09:07:59 ### Path: C:\Users\maria\Downloads\DevOps_RamoBH-picking-web-10-05-dfd6f0d365eb\Picking_Web\Relatorio/EtiquetaQrCode.rpt
